[{"id":1,"first_name":"Rocky","last_name":"Rudkin","email":"rrudkin0@tumblr.com","gender":"Male","country":"Argentina","city":"Quitilipi","avatar":"https://robohash.org/corruptiautvoluptas.jpg?size=100x100&set=set1"},
{"id":2,"first_name":"Frederich","last_name":"Oultram","email":"foultram1@cornell.edu","gender":"Male","country":"Nicaragua","city":"Tola","avatar":"https://robohash.org/explicaboanimidolores.jpg?size=100x100&set=set1"},
{"id":3,"first_name":"Austine","last_name":"Caldow","email":"acaldow2@youtu.be","gender":"Female","country":"Uganda","city":"Kanungu","avatar":"https://robohash.org/sapienteeanon.jpg?size=100x100&set=set1"},
{"id":4,"first_name":"Cathe","last_name":"Hitzschke","email":"chitzschke3@merriam-webster.com","gender":"Female","country":"Cuba","city":"Santa Cruz del Sur","avatar":"https://robohash.org/estexplicabovitae.jpg?size=100x100&set=set1"},
{"id":5,"first_name":"Carina","last_name":"Belly","email":"cbelly4@netvibes.com","gender":"Female","country":"China","city":"Yanglinqiao","avatar":"https://robohash.org/seddoloresquam.jpg?size=100x100&set=set1"},
{"id":6,"first_name":"Morgun","last_name":"Simkovich","email":"msimkovich5@moonfruit.com","gender":"Male","country":"Canada","city":"Waterloo","avatar":"https://robohash.org/rerumbeataeesse.jpg?size=100x100&set=set1"},
{"id":7,"first_name":"Byrann","last_name":"MacCaughan","email":"bmaccaughan6@rediff.com","gender":"Male","country":"China","city":"Chishui","avatar":"https://robohash.org/temporibusipsumut.jpg?size=100x100&set=set1"},
{"id":8,"first_name":"David","last_name":"Kellard","email":"dkellard7@abc.net.au","gender":"Male","country":"France","city":"Besançon","avatar":"https://robohash.org/doloremqueillumut.jpg?size=100x100&set=set1"},
{"id":9,"first_name":"Niall","last_name":"Kittle","email":"nkittle8@latimes.com","gender":"Male","country":"Russia","city":"Svetogorsk","avatar":"https://robohash.org/voluptatumdignissimosmagnam.jpg?size=100x100&set=set1"},
{"id":10,"first_name":"Cheryl","last_name":"Polfer","email":"cpolfer9@php.net","gender":"Female","country":"Angola","city":"Mbanza Congo","avatar":"https://robohash.org/isteadconsectetur.jpg?size=100x100&set=set1"},
{"id":11,"first_name":"Gabi","last_name":"Truran","email":"gtrurana@blinklist.com","gender":"Male","country":"Indonesia","city":"Palopo","avatar":"https://robohash.org/addebitisomnis.jpg?size=100x100&set=set1"},
{"id":12,"first_name":"Ludvig","last_name":"Pullin","email":"lpullinb@angelfire.com","gender":"Male","country":"Philippines","city":"Santa Fe","avatar":"https://robohash.org/delenitiitaquemaxime.jpg?size=100x100&set=set1"},
{"id":13,"first_name":"Orin","last_name":"Windross","email":"owindrossc@xrea.com","gender":"Male","country":"China","city":"Tuodian","avatar":"https://robohash.org/eiusimpeditrerum.jpg?size=100x100&set=set1"},
{"id":14,"first_name":"Roderigo","last_name":"Penright","email":"rpenrightd@princeton.edu","gender":"Male","country":"Papua New Guinea","city":"Wau","avatar":"https://robohash.org/temporaaccusamusodit.jpg?size=100x100&set=set1"},
{"id":15,"first_name":"Fraze","last_name":"Radbond","email":"fradbonde@jalbum.net","gender":"Male","country":"China","city":"Fuli","avatar":"https://robohash.org/suntsapientequi.jpg?size=100x100&set=set1"},
{"id":16,"first_name":"Georgeanna","last_name":"Sudddard","email":"gsudddardf@youtu.be","gender":"Female","country":"Zimbabwe","city":"Masvingo","avatar":"https://robohash.org/sitconsequunturvelit.jpg?size=100x100&set=set1"},
{"id":17,"first_name":"Ignacio","last_name":"Sherebrooke","email":"isherebrookeg@youku.com","gender":"Male","country":"China","city":"Magang","avatar":"https://robohash.org/rerumbeataenatus.jpg?size=100x100&set=set1"},
{"id":18,"first_name":"Emmalynne","last_name":"Bursell","email":"ebursellh@drupal.org","gender":"Female","country":"United States","city":"Houston","avatar":"https://robohash.org/utquibusdamvoluptate.jpg?size=100x100&set=set1"},
{"id":19,"first_name":"Carroll","last_name":"Cummings","email":"ccummingsi@ameblo.jp","gender":"Male","country":"Greece","city":"Kalloní","avatar":"https://robohash.org/praesentiumdoloremporro.jpg?size=100x100&set=set1"},
{"id":20,"first_name":"Horatio","last_name":"Renoden","email":"hrenodenj@wufoo.com","gender":"Male","country":"Brazil","city":"Imbituva","avatar":"https://robohash.org/eoslaboriosammodi.jpg?size=100x100&set=set1"},
{"id":21,"first_name":"Garnette","last_name":"Whewill","email":"gwhewillk@cyberchimps.com","gender":"Female","country":"China","city":"Lianrao","avatar":"https://robohash.org/autcorruptiodit.jpg?size=100x100&set=set1"},
{"id":22,"first_name":"Camille","last_name":"Puddin","email":"cpuddinl@php.net","gender":"Female","country":"China","city":"Gaoling","avatar":"https://robohash.org/omnislaboriosamtotam.jpg?size=100x100&set=set1"},
{"id":23,"first_name":"Farley","last_name":"Hovel","email":"fhovelm@friendfeed.com","gender":"Male","country":"Indonesia","city":"Gobang","avatar":"https://robohash.org/esserecusandaedolorem.jpg?size=100x100&set=set1"},
{"id":24,"first_name":"Aimee","last_name":"Shama","email":"ashaman@icq.com","gender":"Female","country":"Norway","city":"Sandefjord","avatar":"https://robohash.org/consequaturmolestiasasperiores.jpg?size=100x100&set=set1"},
{"id":25,"first_name":"Valentina","last_name":"Allgood","email":"vallgoodo@samsung.com","gender":"Female","country":"Indonesia","city":"Banjarsari","avatar":"https://robohash.org/velitlaboriosamnatus.jpg?size=100x100&set=set1"},
{"id":26,"first_name":"Costa","last_name":"Boribal","email":"cboribalp@cargocollective.com","gender":"Male","country":"Indonesia","city":"Cihaur","avatar":"https://robohash.org/autoccaecatiillo.jpg?size=100x100&set=set1"},
{"id":27,"first_name":"Margi","last_name":"Hens","email":"mhensq@jimdo.com","gender":"Female","country":"China","city":"Zhihe","avatar":"https://robohash.org/officiaofficiisexcepturi.jpg?size=100x100&set=set1"},
{"id":28,"first_name":"Yolane","last_name":"Cawcutt","email":"ycawcuttr@alexa.com","gender":"Female","country":"Greece","city":"Diónysos","avatar":"https://robohash.org/voluptatequisquaerat.jpg?size=100x100&set=set1"},
{"id":29,"first_name":"Ailee","last_name":"Goodacre","email":"agoodacres@admin.ch","gender":"Female","country":"Thailand","city":"Pattani","avatar":"https://robohash.org/modirationevitae.jpg?size=100x100&set=set1"},
{"id":30,"first_name":"Wyndham","last_name":"Oxshott","email":"woxshottt@123-reg.co.uk","gender":"Male","country":"Philippines","city":"Quipot","avatar":"https://robohash.org/repellatquidemut.jpg?size=100x100&set=set1"},
{"id":31,"first_name":"Vernon","last_name":"Clears","email":"vclearsu@drupal.org","gender":"Male","country":"Croatia","city":"Jakšić","avatar":"https://robohash.org/veniamteneturipsa.jpg?size=100x100&set=set1"},
{"id":32,"first_name":"Martyn","last_name":"Vasyagin","email":"mvasyaginv@nps.gov","gender":"Male","country":"Finland","city":"Outokumpu","avatar":"https://robohash.org/distinctiocupiditateesse.jpg?size=100x100&set=set1"},
{"id":33,"first_name":"Dewitt","last_name":"Basilio","email":"dbasiliow@ocn.ne.jp","gender":"Male","country":"Portugal","city":"Olho Marinho","avatar":"https://robohash.org/rerumvoluptatemperspiciatis.jpg?size=100x100&set=set1"},
{"id":34,"first_name":"Roddy","last_name":"Congreave","email":"rcongreavex@comsenz.com","gender":"Male","country":"Denmark","city":"København","avatar":"https://robohash.org/minimapossimussit.jpg?size=100x100&set=set1"},
{"id":35,"first_name":"Melodee","last_name":"Melato","email":"mmelatoy@cnet.com","gender":"Female","country":"Philippines","city":"Sinacaban","avatar":"https://robohash.org/laudantiumveritatissed.jpg?size=100x100&set=set1"},
{"id":36,"first_name":"Kliment","last_name":"Syers","email":"ksyersz@ustream.tv","gender":"Male","country":"Russia","city":"Beya","avatar":"https://robohash.org/estquisquia.jpg?size=100x100&set=set1"},
{"id":37,"first_name":"Thain","last_name":"Brecken","email":"tbrecken10@cocolog-nifty.com","gender":"Male","country":"United States","city":"Houston","avatar":"https://robohash.org/possimuseumat.jpg?size=100x100&set=set1"},
{"id":38,"first_name":"Nicola","last_name":"Manton","email":"nmanton11@java.com","gender":"Male","country":"Egypt","city":"Dishnā","avatar":"https://robohash.org/sintaliquamut.jpg?size=100x100&set=set1"},
{"id":39,"first_name":"Ekaterina","last_name":"Slimings","email":"eslimings12@nbcnews.com","gender":"Female","country":"China","city":"Taiyang","avatar":"https://robohash.org/etquodquaerat.jpg?size=100x100&set=set1"},
{"id":40,"first_name":"Trenton","last_name":"Cheson","email":"tcheson13@last.fm","gender":"Male","country":"United States","city":"Amarillo","avatar":"https://robohash.org/quoiustonecessitatibus.jpg?size=100x100&set=set1"},
{"id":41,"first_name":"Otho","last_name":"Groves","email":"ogroves14@ocn.ne.jp","gender":"Male","country":"Venezuela","city":"Caraballeda","avatar":"https://robohash.org/etautbeatae.jpg?size=100x100&set=set1"},
{"id":42,"first_name":"Annice","last_name":"Argile","email":"aargile15@wordpress.com","gender":"Female","country":"Spain","city":"Almeria","avatar":"https://robohash.org/nullafugiatut.jpg?size=100x100&set=set1"},
{"id":43,"first_name":"Peter","last_name":"Semper","email":"psemper16@thetimes.co.uk","gender":"Male","country":"Russia","city":"Grecheskoye","avatar":"https://robohash.org/maximesedquibusdam.jpg?size=100x100&set=set1"},
{"id":44,"first_name":"Cosette","last_name":"Sterley","email":"csterley17@shop-pro.jp","gender":"Female","country":"Philippines","city":"Matanog","avatar":"https://robohash.org/possimusullamconsectetur.jpg?size=100x100&set=set1"},
{"id":45,"first_name":"Christina","last_name":"Gulleford","email":"cgulleford18@elpais.com","gender":"Female","country":"France","city":"Toulouse","avatar":"https://robohash.org/auttemporaquibusdam.jpg?size=100x100&set=set1"},
{"id":46,"first_name":"Jessey","last_name":"Trudgian","email":"jtrudgian19@amazonaws.com","gender":"Male","country":"Libya","city":"Al Jawf","avatar":"https://robohash.org/quiaevenietqui.jpg?size=100x100&set=set1"},
{"id":47,"first_name":"Abigale","last_name":"Loyley","email":"aloyley1a@illinois.edu","gender":"Female","country":"Brazil","city":"Jequié","avatar":"https://robohash.org/doloreverolaboriosam.jpg?size=100x100&set=set1"},
{"id":48,"first_name":"Hyacinthe","last_name":"Corben","email":"hcorben1b@paginegialle.it","gender":"Female","country":"Honduras","city":"Paujiles","avatar":"https://robohash.org/perferendisquibusdamconsequatur.jpg?size=100x100&set=set1"},
{"id":49,"first_name":"Sybille","last_name":"Laurentino","email":"slaurentino1c@feedburner.com","gender":"Female","country":"United States","city":"Denton","avatar":"https://robohash.org/voluptatemnisiomnis.jpg?size=100x100&set=set1"},
{"id":50,"first_name":"Sibel","last_name":"Attridge","email":"sattridge1d@is.gd","gender":"Female","country":"Vietnam","city":"Thanh Khê","avatar":"https://robohash.org/accusamusvoluptasblanditiis.jpg?size=100x100&set=set1"}]